<svg width="55" height="24" viewBox="0 0 55 24" fill="none" xmlns="http://www.w3.org/2000/svg">
<rect x="0.399902" width="54" height="24" rx="12" fill="#9757D7"/>
<path fill-rule="evenodd" clip-rule="evenodd" d="M19.0667 12C19.0667 13.4728 17.8728 14.6667 16.4001 14.6667C14.9273 14.6667 13.7334 13.4728 13.7334 12C13.7334 10.5273 14.9273 9.33337 16.4001 9.33337C17.8728 9.33337 19.0667 10.5273 19.0667 12ZM17.7334 12C17.7334 12.7364 17.1364 13.3334 16.4001 13.3334C15.6637 13.3334 15.0667 12.7364 15.0667 12C15.0667 11.2637 15.6637 10.6667 16.4001 10.6667C17.1364 10.6667 17.7334 11.2637 17.7334 12Z" fill="#FCFCFD"/>
<path fill-rule="evenodd" clip-rule="evenodd" d="M23.0667 12C23.0667 15.6819 20.082 18.6667 16.4001 18.6667C12.7182 18.6667 9.7334 15.6819 9.7334 12C9.7334 8.31814 12.7182 5.33337 16.4001 5.33337C20.082 5.33337 23.0667 8.31814 23.0667 12ZM21.7334 12C21.7334 14.9456 19.3456 17.3334 16.4001 17.3334C13.4545 17.3334 11.0667 14.9456 11.0667 12C11.0667 9.05452 13.4545 6.66671 16.4001 6.66671C19.3456 6.66671 21.7334 9.05452 21.7334 12Z" fill="#FCFCFD"/>
<path d="M12.434 7.12253C12.5504 6.77324 12.9279 6.58446 13.2772 6.7009L15.2772 7.36756C15.6265 7.48399 15.8153 7.86154 15.6989 8.21084C15.5824 8.56013 15.2049 8.74891 14.8556 8.63247L12.8556 7.96581C12.5063 7.84938 12.3175 7.47183 12.434 7.12253Z" fill="#FCFCFD"/>
<path d="M12.4701 11.0352C12.6348 10.7059 13.0352 10.5724 13.3645 10.737L14.6979 11.4037C15.0272 11.5684 15.1607 11.9688 14.996 12.2981C14.8313 12.6274 14.4309 12.7609 14.1016 12.5963L12.7682 11.9296C12.4389 11.7649 12.3054 11.3645 12.4701 11.0352Z" fill="#FCFCFD"/>
<path d="M17.5378 17.1381C17.7982 16.8777 17.7982 16.4556 17.5378 16.1953C17.2775 15.9349 16.8554 15.9349 16.595 16.1953L15.595 17.1953C15.3347 17.4556 15.3347 17.8777 15.595 18.1381C15.8554 18.3984 16.2775 18.3984 16.5378 18.1381L17.5378 17.1381Z" fill="#FCFCFD"/>
<path d="M17.595 13.1953C17.8554 12.9349 18.2775 12.9349 18.5378 13.1953L18.8711 13.5286C19.1315 13.7889 19.1315 14.2111 18.8711 14.4714C18.6108 14.7318 18.1887 14.7318 17.9283 14.4714L17.595 14.1381C17.3347 13.8777 17.3347 13.4556 17.595 13.1953Z" fill="#FCFCFD"/>
<path d="M13.6627 14.9648C13.8273 14.6355 13.6939 14.235 13.3645 14.0704C13.0352 13.9057 12.6348 14.0392 12.4701 14.3685L11.8034 15.7018C11.6388 16.0312 11.7723 16.4316 12.1016 16.5963C12.4309 16.7609 12.8313 16.6274 12.996 16.2981L13.6627 14.9648Z" fill="#FCFCFD"/>
<path d="M22.996 11.7018C23.1607 12.0312 23.0272 12.4316 22.6979 12.5963L21.3645 13.2629C21.0352 13.4276 20.6348 13.2941 20.4701 12.9648C20.3054 12.6355 20.4389 12.235 20.7682 12.0704L22.1016 11.4037C22.4309 11.239 22.8313 11.3725 22.996 11.7018Z" fill="#FCFCFD"/>
<path d="M19.0322 9.54417C19.1486 9.19487 18.9599 8.81733 18.6106 8.7009C18.2613 8.58446 17.8837 8.77324 17.7673 9.12253L17.434 10.1225C17.3175 10.4718 17.5063 10.8494 17.8556 10.9658C18.2049 11.0822 18.5824 10.8935 18.6989 10.5442L19.0322 9.54417Z" fill="#FCFCFD"/>
<path d="M36.6079 10.612L36.2119 12.46H37.7359V13.96H35.8879L35.4559 16H33.8599L34.2919 13.96H32.1079L31.6759 16H30.0919L30.5239 13.96H28.7119V12.46H30.8479L31.2439 10.612H29.4439V9.112H31.5679L31.9879 7.12H33.5719L33.1519 9.112H35.3359L35.7559 7.12H37.3519L36.9319 9.112H38.4679V10.612H36.6079ZM35.0119 10.612H32.8279L32.4319 12.46H34.6159L35.0119 10.612ZM40.2045 14.104C40.9725 13.464 41.5845 12.932 42.0405 12.508C42.4965 12.076 42.8765 11.628 43.1805 11.164C43.4845 10.7 43.6365 10.244 43.6365 9.796C43.6365 9.388 43.5405 9.068 43.3485 8.836C43.1565 8.604 42.8605 8.488 42.4605 8.488C42.0605 8.488 41.7525 8.624 41.5365 8.896C41.3205 9.16 41.2085 9.524 41.2005 9.988H39.5685C39.6005 9.028 39.8845 8.3 40.4205 7.804C40.9645 7.308 41.6525 7.06 42.4845 7.06C43.3965 7.06 44.0965 7.304 44.5845 7.792C45.0725 8.272 45.3165 8.908 45.3165 9.7C45.3165 10.324 45.1485 10.92 44.8125 11.488C44.4765 12.056 44.0925 12.552 43.6605 12.976C43.2285 13.392 42.6645 13.896 41.9685 14.488H45.5085V15.88H39.5805V14.632L40.2045 14.104Z" fill="#FCFCFD"/>
</svg>
