<svg width="55" height="24" viewBox="0 0 55 24" fill="none" xmlns="http://www.w3.org/2000/svg">
<rect x="0.799805" width="54" height="24" rx="12" fill="#45B36B"/>
<path fill-rule="evenodd" clip-rule="evenodd" d="M17.0402 12.6666L16.3836 16.6064L20.1919 11.3333H16.5589L17.2156 7.39355L13.4072 12.6666H17.0402ZM18.9985 4.80636C19.1143 4.11127 18.213 3.73516 17.8004 4.30643L11.5629 12.943C11.2445 13.3839 11.5596 14 12.1034 14H15.4662L14.6006 19.1936C14.4848 19.8887 15.3861 20.2648 15.7987 19.6935L22.0362 11.057C22.3546 10.6161 22.0396 9.99997 21.4957 9.99997H18.1329L18.9985 4.80636Z" fill="#FCFCFD"/>
<path d="M37.0078 10.612L36.6118 12.46H38.1358V13.96H36.2878L35.8558 16H34.2598L34.6918 13.96H32.5078L32.0758 16H30.4918L30.9238 13.96H29.1118V12.46H31.2478L31.6438 10.612H29.8438V9.112H31.9678L32.3878 7.12H33.9718L33.5518 9.112H35.7358L36.1558 7.12H37.7518L37.3318 9.112H38.8678V10.612H37.0078ZM35.4118 10.612H33.2278L32.8318 12.46H35.0158L35.4118 10.612ZM40.1004 9.556C40.1404 8.756 40.4204 8.14 40.9404 7.708C41.4684 7.268 42.1604 7.048 43.0164 7.048C43.6004 7.048 44.1004 7.152 44.5164 7.36C44.9324 7.56 45.2444 7.836 45.4524 8.188C45.6684 8.532 45.7764 8.924 45.7764 9.364C45.7764 9.868 45.6444 10.296 45.3804 10.648C45.1244 10.992 44.8164 11.224 44.4564 11.344V11.392C44.9204 11.536 45.2804 11.792 45.5364 12.16C45.8004 12.528 45.9324 13 45.9324 13.576C45.9324 14.056 45.8204 14.484 45.5964 14.86C45.3804 15.236 45.0564 15.532 44.6244 15.748C44.2004 15.956 43.6884 16.06 43.0884 16.06C42.1844 16.06 41.4484 15.832 40.8804 15.376C40.3124 14.92 40.0124 14.248 39.9804 13.36H41.6124C41.6284 13.752 41.7604 14.068 42.0084 14.308C42.2644 14.54 42.6124 14.656 43.0524 14.656C43.4604 14.656 43.7724 14.544 43.9884 14.32C44.2124 14.088 44.3244 13.792 44.3244 13.432C44.3244 12.952 44.1724 12.608 43.8684 12.4C43.5644 12.192 43.0924 12.088 42.4524 12.088H42.1044V10.708H42.4524C43.5884 10.708 44.1564 10.328 44.1564 9.568C44.1564 9.224 44.0524 8.956 43.8444 8.764C43.6444 8.572 43.3524 8.476 42.9684 8.476C42.5924 8.476 42.3004 8.58 42.0924 8.788C41.8924 8.988 41.7764 9.244 41.7444 9.556H40.1004Z" fill="#FCFCFD"/>
</svg>
